Handin/Data/SensorController og Driver/Test 4/Med Dioder/MedSleep.csv

#Digilent WaveForms Oscilloscope Acquisition
#Device Name: Discovery2
#Serial Number: SN:210321A6846B
#Date Time: 2021-05-24 17:37:19.299
#Sample rate: 400Hz
#Samples: 8192
#Trigger: None
#Channel 1: Range: 10 mV/div Offset: 0 V Attenuation: 1 X
#Power Supplies: ON
#Positive Supply: ON
#Voltage: 5 V
#Negative Supply: OFF
#Voltage: -1 V

Time (s),Channel 1 (V)
-10.24,0.007740208680115563
-10.2375,0.01795861158841577
-10.235,0.01795861158842042
-10.2325,0.01795861158842042
-10.23,0.01795861158842042
-10.2275,0.01795861158842057
-10.225,0.01828823748868831
-10.2225,0.01828823748868831
-10.22,0.01795861158842057
-10.2175,0.01795861158842042
-10.215,0.01795861158842042
-10.2125,0.01795861158842042
-10.21,0.01795861158842042
-10.2075,0.01795861158842042
-10.205,0.01795861158842042
-10.2025,0.01795861158842042
-10.2,0.01795861158842042
-10.1975,0.01795861158842042
-10.195,0.01795861158842042
-10.1925,0.01795861158842042
-10.19,0.01795861158842042
-10.1875,0.01795861158842042
-10.185,0.01795861158842042
-10.1825,0.01795861158842042
-10.18,0.01795861158842042
-10.1775,0.01795861158842042
-10.175,0.01795861158842042
-10.1725,0.01795861158842042
-10.17,0.01795861158842042
-10.1675,0.01795861158842042
-10.165,0.01828823748868817
-10.1625,0.01795861158842042
-10.16,0.01795861158842042
-10.1575,0.01795861158842042
-10.155,0.01795861158842042
-10.1525,0.01795861158842042
-10.15,0.01795861158842042
-10.1475,0.01795861158842042
-10.145,0.01795861158842042
-10.1425,0.01828823748868831
-10.14,0.01795861158842042
-10.1375,0.01795861158842042
-10.135,0.01795861158842042
-10.1325,0.01795861158842042
-10.13,0.01795861158842042
-10.1275,0.01795861158842042
-10.125,0.01828823748868831
-10.1225,0.01828823748868831
-10.12,0.01795861158842042
-10.1175,0.01795861158842042
-10.115,0.01795861158842042
-10.1125,0.01795861158842042
-10.11,0.01795861158842042
-10.1075,0.01795861158842042
-10.105,0.01828823748868831
-10.1025,0.01828823748868817
-10.1,0.01795861158842042
-10.0975,0.01795861158842042
-10.095,0.01795861158842042
-10.0925,0.01795861158842042
-10.09,0.01795861158842042
-10.0875,0.01795861158842042
-10.085,0.01828823748868817
-10.0825,0.01828823748868831
-10.08,0.01795861158842042
-10.0775,0.01795861158842042
-10.075,0.01795861158842042
-10.0725,0.01795861158842042
-10.07,0.01795861158842042
-10.0675,0.01795861158842042
-10.065,0.01828823748868831
-10.0625,0.01828823748868831
-10.06,0.01795861158842042
-10.0575,0.01795861158842042
-10.055,0.01795861158842042
-10.0525,0.01795861158842042
-10.05,0.01795861158842042
-10.0475,0.01795861158842042
-10.045,0.01828823748868831
-10.0425,0.01828823748868831
-10.04,0.01795861158842042
-10.0375,0.01795861158842042
-10.035,0.01795861158842042
-10.0325,0.01795861158842042
-10.03,0.01795861158842042
-10.0275,0.01795861158842042
-10.025,0.01828823748868831
-10.0225,0.01828823748868831
-10.02,0.01795861158842042
-10.0175,0.01433272668547353
-10.015,0.01334384898466984
-10.0125,0.01334384898466984
-10.01,0.01334384898466984
-10.0075,0.01334384898466984
-10.005,0.01334384898466984
-10.0025,0.01334384898466984
-10,0.01334384898466984
-9.9975,0.01334384898466984
-9.994999999999999,0.01334384898466984
-9.9925,0.01334384898466984
-9.99,0.01334384898466984
-9.987500000000001,0.01367347488493759
-9.984999999999999,0.01367347488493774
-9.9825,0.01367347488493774
-9.98,0.01367347488493774
-9.977499999999999,0.01334384898466984
-9.975,0.01334384898466984
-9.9725,0.01334384898466984
-9.970000000000001,0.01334384898466984
-9.967499999999999,0.01334384898466999
-9.965,0.01367347488493774
-9.9625,0.01367347488493774
-9.960000000000001,0.01334384898466999
-9.9575,0.01334384898466984
-9.955,0.01334384898466984
-9.952500000000001,0.01334384898466984
-9.949999999999999,0.01334384898466999
-9.9475,0.01367347488493774
-9.945,0.01367347488493774
-9.942500000000001,0.01367347488493774
-9.94,0.01367347488493774
-9.9375,0.01334384898466984
-9.935,0.01334384898466984
-9.932499999999999,0.01334384898466984
-9.93,0.01334384898466984
-9.9275,0.01334384898466984
-9.925000000000001,0.01367347488493759
-9.922499999999999,0.01367347488493774
-9.92,0.01367347488493774
-9.9175,0.01334384898466984
-9.914999999999999,0.01334384898466984
-9.9125,0.01334384898466984
-9.91,0.01334384898466984
-9.907500000000001,0.01334384898466984
-9.904999999999999,0.01367347488493774
-9.9025,0.01367347488493774
-9.9,0.01334384898466984
-9.897500000000001,0.01334384898466984
-9.895,0.01334384898466984
-9.8925,0.01334384898466984
-9.890000000000001,0.01334384898466984
-9.887499999999999,0.01334384898466984
-9.885,0.01334384898466984
-9.8825,0.01367347488493774
-9.880000000000001,0.01334384898466999
-9.8775,0.01334384898466984
-9.875,0.01334384898466984
-9.8725,0.01334384898466984
-9.869999999999999,0.01334384898466984
-9.8675,0.01334384898466984
-9.865,0.01334384898466984
-9.862500000000001,0.01334384898466984
-9.859999999999999,0.01334384898466984
-9.8575,0.01334384898466984
-9.855,0.01334384898466984
-9.852499999999999,0.01334384898466984
-9.85,0.01334384898466984
-9.8475,0.01334384898466984
-9.845000000000001,0.01334384898466984
-9.842499999999999,0.01367347488494073
-9.84,0.02026599289029571
-9.8375,0.0212548705910994
-9.835000000000001,0.0212548705910994
-9.8325,0.0212548705910994
-9.83,0.0215844964913673
-9.827500000000001,0.0215844964913673
-9.824999999999999,0.0215844964913673
-9.8225,0.0215844964913673
-9.82,0.0215844964913673
-9.817500000000001,0.02125487059109955
-9.815,0.0212548705910994
-9.8125,0.0212548705910994
-9.81,0.0215844964913673
-9.807499999999999,0.0215844964913673
-9.805,0.0215844964913673
-9.8025,0.0215844964913673
-9.800000000000001,0.0215844964913673
-9.797499999999999,0.0215844964913673
-9.795,0.0212548705910994
-9.7925,0.0215844964913673
-9.789999999999999,0.0215844964913673
-9.7875,0.0215844964913673
-9.785,0.0215844964913673
-9.782500000000001,0.0215844964913673
-9.779999999999999,0.0215844964913673
-9.7775,0.0215844964913673
-9.775,0.0215844964913673
-9.772500000000001,0.0215844964913673
-9.77,0.0215844964913673
-9.7675,0.0215844964913673
-9.765000000000001,0.0215844964913673
-9.762499999999999,0.0215844964913673
-9.76,0.0215844964913673
-9.7575,0.0215844964913673
-9.755000000000001,0.0215844964913673
-9.7525,0.0215844964913673
-9.75,0.0215844964913673
-9.7475,0.0215844964913673
-9.744999999999999,0.0219141223916352
-9.7425,0.0219141223916352
-9.74,0.0215844964913673
-9.737500000000001,0.0215844964913673
-9.734999999999999,0.0215844964913673
-9.7325,0.0215844964913673
-9.73,0.0215844964913673
-9.727499999999999,0.0215844964913673
-9.725,0.0215844964913673
-9.7225,0.0215844964913673
-9.720000000000001,0.0215844964913673
-9.717499999999999,0.02158449649136715
-9.715,0.0212548705910994
-9.7125,0.0215844964913673
-9.710000000000001,0.0215844964913673
-9.7075,0.0215844964913673
-9.705,0.0215844964913673
-9.702500000000001,0.0215844964913673
-9.699999999999999,0.0215844964913673
-9.6975,0.0215844964913673
-9.695,0.0215844964913673
-9.692500000000001,0.0215844964913673
-9.69,0.0215844964913673
-9.6875,0.0215844964913673
-9.685,0.0219141223916352
-9.682499999999999,0.02191412239163505
-9.68,0.0215844964913673
-9.6775,0.0215844964913673
-9.675000000000001,0.02125487059109955
-9.672499999999999,0.0212548705910994
-9.67,0.0215844964913673
-9.6675,0.0215844964913673
-9.664999999999999,0.0215844964913673
-9.6625,0.0215844964913673
-9.66,0.0215844964913673
-9.657500000000001,0.02125487059109955
-9.654999999999999,0.0212548705910994
-9.6525,0.0212548705910994
-9.65,0.0215844964913673
-9.647500000000001,0.0215844964913673
-9.645,0.0215844964913673
-9.6425,0.0215844964913673
-9.640000000000001,0.0215844964913673
-9.637499999999999,0.02158449649136715
-9.635,0.0212548705910994
-9.6325,0.0212548705910994
-9.630000000000001,0.02158449649136715
-9.6275,0.0215844964913673
-9.625,0.0215844964913673
-9.6225,0.0215844964913673
-9.619999999999999,0.0215844964913673
-9.6175,0.0215844964913673
-9.615,0.0212548705910994
-9.612500000000001,0.0212548705910994
-9.609999999999999,0.0215844964913673
-9.6075,0.0215844964913673
-9.605,0.0215844964913673
-9.602499999999999,0.0215844964913673
-9.6,0.0215844964913673
-9.5975,0.0212548705910994
-9.595000000000001,0.0212548705910994
-9.592499999999999,0.0212548705910994
-9.59,0.0212548705910994
-9.5875,0.0215844964913673
-9.585000000000001,0.0215844964913673
-9.5825,0.0215844964913673
-9.58,0.0215844964913673
-9.577500000000001,0.0212548705910994
-9.574999999999999,0.0212548705910994
-9.5725,0.0212548705910994
-9.57,0.0215844964913673
-9.567500000000001,0.0215844964913673
-9.565,0.0215844964913673
-9.5625,0.0209252446908315
-9.56,0.02026599289029571
-9.557499999999999,0.02026599289029571
-9.555,0.02026599289029571
-9.5525,0.02026599289029571
-9.550000000000001,0.02026599289029571
-9.547499999999999,0.0205956187905636
-9.545,0.0205956187905636
-9.5425,0.0205956187905636
-9.539999999999999,0.02026599289029571
-9.5375,0.02026599289029571
-9.535,0.02026599289029571
-9.532500000000001,0.02026599289029571
-9.529999999999999,0.02026599289029571
-9.5275,0.02026599289029571
-9.525,0.0205956187905636
-9.522500000000001,0.0205956187905636
-9.52,0.02026599289029571
-9.5175,0.02026599289029571
-9.515000000000001,0.02026599289029571
-9.512499999999999,0.02026599289029571
-9.51,0.02026599289029571
-9.5075,0.0205956187905636
-9.505000000000001,0.0205956187905636
-9.5025,0.0205956187905636
-9.5,0.02026599289029571
-9.4975,0.02026599289029571
-9.494999999999999,0.02026599289029571
-9.4925,0.02026599289029571
-9.49,0.02026599289029571
-9.487500000000001,0.02026599289029571
-9.484999999999999,0.0205956187905636
-9.4825,0.0205956187905636
-9.48,0.02026599289029571
-9.477499999999999,0.02026599289029571
-9.475,0.02026599289029571
-9.4725,0.02026599289029571
-9.470000000000001,0.02026599289029571
-9.467499999999999,0.02026599289029585
-9.465,0.0205956187905636
-9.4625,0.02026599289029571
-9.460000000000001,0.02026599289029571
-9.4575,0.02026599289029571
-9.455,0.02026599289029571
-9.452500000000001,0.02026599289029571
-9.449999999999999,0.02026599289029571
-9.4475,0.02026599289029571
-9.445,0.0205956187905636
-9.442500000000001,0.0205956187905636
-9.44,0.02026599289029571
-9.4375,0.02026599289029571
-9.435,0.02026599289029571
-9.432499999999999,0.02026599289029571
-9.43,0.02026599289029571
-9.4275,0.02026599289029571
-9.425000000000001,0.02026599289029571
-9.422499999999999,0.02026599289029571
-9.42,0.02026599289029571
-9.4175,0.02026599289029571
-9.414999999999999,0.02026599289029571
-9.4125,0.02026599289029571
-9.41,0.02026599289029571
-9.407500000000001,0.02026599289029571
-9.404999999999999,0.02059561879056345
-9.4025,0.02026599289029571
-9.4,0.02026599289029571
-9.397500000000001,0.02026599289029571
-9.395,0.02026599289029571
-9.3925,0.02026599289029571
-9.390000000000001,0.02026599289029571
-9.387499999999999,0.02026599289029571
-9.385,0.02026599289029571
-9.3825,0.02026599289029571
-9.380000000000001,0.02026599289029571
-9.3775,0.02026599289029571
-9.375,0.02026599289029571
-9.3725,0.02026599289029571
-9.369999999999999,0.02026599289029571
-9.3675,0.02026599289029571
-9.365,0.0205956187905636
-9.362500000000001,0.02026599289029585
-9.359999999999999,0.02026599289029571
-9.3575,0.02026599289029571
-9.355,0.02026599289029571
-9.352499999999999,0.02026599289029571
-9.35,0.02026599289029571
-9.3475,0.02026599289029571
-9.345000000000001,0.02026599289029571
-9.342499999999999,0.02026599289029571
-9.34,0.02026599289029571
-9.3375,0.02026599289029571
-9.335000000000001,0.02026599289029571
-9.3325,0.02026599289029571
-9.33,0.02026599289029571
-9.327500000000001,0.02026599289029571
-9.324999999999999,0.02059561879056345
-9.3225,0.02026599289029571
-9.32,0.02026599289029571
-9.317500000000001,0.02026599289029571
-9.315,0.02026599289029571
-9.3125,0.02026599289029571
-9.31,0.02026599289029571
-9.307499999999999,0.02026599289029585
-9.305,0.0205956187905636
-9.3025,0.0205956187905636
-9.300000000000001,0.02026599289029585
-9.297499999999999,0.02026599289029571
-9.295,0.02026599289029571
-9.2925,0.02026599289029571
-9.289999999999999,0.02026599289029571
-9.2875,0.02026599289029571
-9.285,0.0205956187905636
-9.282500000000001,0.0212548705910991
-9.279999999999999,0.02158449649136715
-9.2775,0.0212548705910994
-9.275,0.0212548705910994
-9.272500000000001,0.02158449649136715
-9.27,0.0215844964913673
-9.2675,0.0215844964913673
-9.265000000000001,0.0215844964913673
-9.262499999999999,0.0215844964913673
-9.26,0.0215844964913673
-9.2575,0.0215844964913673
-9.255000000000001,0.0215844964913673
-9.2525,0.0212548705910994
-9.25,0.0215844964913673
-9.2475,0.0215844964913673
-9.244999999999999,0.0215844964913673
-9.2425,0.0215844964913673
-9.24,0.0215844964913673
-9.237500000000001,0.0215844964913673
-9.234999999999999,0.0212548705910994
-9.2325,0.0215844964913673
-9.23,0.0215844964913673
-9.227499999999999,0.0215844964913673
-9.225,0.0215844964913673
-9.2225,0.0215844964913673
-9.220000000000001,0.0215844964913673
-9.217499999999999,0.0215844964913673
-9.215,0.0215844964913673
-9.2125,0.0215844964913673
-9.210000000000001,0.0215844964913673
-9.2075,0.0215844964913673
-9.205,0.0215844964913673
-9.202500000000001,0.0215844964913673
-9.199999999999999,0.02158449649136715
-9.1975,0.0212548705910994
-9.195,0.0212548705910994
-9.192500000000001,0.0212548705910994
-9.19,0.0212548705910994
-9.1875,0.0215844964913673
-9.185,0.0215844964913673
-9.182499999999999,0.0215844964913673
-9.18,0.0215844964913673
-9.1775,0.0212548705910994
-9.175000000000001,0.0212548705910994
-9.172499999999999,0.0212548705910994
-9.17,0.0215844964913673
-9.1675,0.0215844964913673
-9.164999999999999,0.0215844964913673
-9.1625,0.0215844964913673
-9.16,0.0215844964913673
-9.157500000000001,0.02125487059109955
-9.154999999999999,0.0212548705910994
-9.1525,0.0212548705910994
-9.15,0.0215844964913673
-9.147500000000001,0.0215844964913673
-9.145,0.0215844964913673
-9.1425,0.0215844964913673
-9.140000000000001,0.0215844964913673
-9.137499999999999,0.02158449649136715
-9.135,0.0212548705910994
-9.1325,0.0215844964913673
-9.130000000000001,0.0215844964913673
-9.1275,0.0215844964913673
-9.125,0.0215844964913673
-9.1225,0.0215844964913673
-9.119999999999999,0.0215844964913673
-9.1175,0.0215844964913673
-9.115,0.0212548705910994
-9.112500000000001,0.0212548705910994
-9.109999999999999,0.0215844964913673
-9.1075,0.0215844964913673
-9.105,0.0215844964913673
-9.102499999999999,0.0215844964913673
-9.1,0.0215844964913673
-9.0975,0.0215844964913673
-9.095000000000001,0.02125487059109955
-9.092499999999999,0.0215844964913673
-9.09,0.0215844964913673
-9.0875,0.0215844964913673
-9.085000000000001,0.0215844964913673
-9.0825,0.0215844964913673
-9.08,0.0215844964913673
-9.077500000000001,0.0215844964913673
-9.074999999999999,0.0212548705910994
-9.0725,0.0212548705910994
-9.07,0.0215844964913673
-9.067500000000001,0.0215844964913673
-9.065,0.0215844964913673
-9.0625,0.0215844964913673
-9.06,0.0215844964913673
-9.057499999999999,0.0215844964913667
-9.055,0.02026599289029571
-9.0525,0.02026599289029571
-9.050000000000001,0.02026599289029571
-9.047499999999999,0.02026599289029571
-9.045,0.02026599289029571
-9.0425,0.02026599289029571
-9.039999999999999,0.02026599289029571
-9.0375,0.02026599289029571
-9.035,0.02026599289029571
-9.032500000000001,0.02026599289029571
-9.029999999999999,0.02026599289029571
-9.0275,0.02026599289029571
-9.025,0.02026599289029571
-9.022500000000001,0.02026599289029571
-9.02,0.02026599289029571
-9.0175,0.02026599289029571
-9.015000000000001,0.02026599289029571
-9.012499999999999,0.02026599289029571
-9.01,0.02026599289029571
-9.0075,0.02026599289029571
-9.005000000000001,0.01861786338895696
-9.0025,0.01795861158842042
-9,0.01795861158842042
-8.9975,0.01795861158842042
-8.994999999999999,0.01795861158842042
-8.9925,0.01795861158842042
-8.99,0.01795861158842042
-8.987500000000001,0.01795861158842042
-8.984999999999999,0.01795861158842042
-8.9825,0.01795861158842042
-8.98,0.01795861158842042
-8.977499999999999,0.01795861158842042
-8.975,0.01795861158842042
-8.9725,0.01795861158842042
-8.970000000000001,0.01795861158842042
-8.967499999999999,0.01795861158842042
-8.965,0.01795861158842042
-8.9625,0.01795861158842042
-8.960000000000001,0.01795861158842042
-8.9575,0.01795861158842042
-8.955,0.01795861158842042
-8.952500000000001,0.01795861158842042
-8.949999999999999,0.01795861158842042
-8.9475,0.01795861158842042
-8.945,0.01795861158842042
-8.942500000000001,0.01828823748868817
-8.94,0.01795861158842042
-8.9375,0.01795861158842042
-8.935,0.01795861158842042
-8.932499999999999,0.01795861158842042
-8.93,0.01795861158842042
-8.9275,0.01795861158842042
-8.925000000000001,0.01795861158842042
-8.922499999999999,0.01795861158842042
-8.92,0.01795861158842042
-8.9175,0.01795861158842042
-8.914999999999999,0.01795861158842042
-8.9125,0.01795861158842042
-8.91,0.01795861158842042
-8.907500000000001,0.01795861158842042
-8.904999999999999,0.01795861158842042
-8.9025,0.01795861158842042
-8.9,0.01795861158842042
-8.897500000000001,0.01795861158842042
-8.895,0.01795861158842042
-8.8925,0.01795861158842042
-8.890000000000001,0.01795861158842042
-8.887499999999999,0.01795861158842042
-8.885,0.01795861158842042
-8.8825,0.01795861158842042
-8.880000000000001,0.01795861158842042
-8.8775,0.01795861158842042
-8.875,0.01795861158842042
-8.8725,0.01795861158842042
-8.869999999999999,0.01795861158842042
-8.8675,0.01795861158842042
-8.865,0.01795861158842042
-8.862500000000001,0.01795861158842042
-8.859999999999999,0.01795861158842042
-8.8575,0.01795861158842042
-8.855,0.01795861158842042
-8.852499999999999,0.01795861158842042
-8.85,0.01795861158842042
-8.8475,0.01795861158842042
-8.845000000000001,0.01795861158842042
-8.842499999999999,0.01795861158842042
-8.84,0.01795861158842042
-8.8375,0.01795861158842042
-8.835000000000001,0.01795861158842042
-8.8325,0.01795861158842042
-8.83,0.01795861158842042
-8.827500000000001,0.01795861158842042
-8.824999999999999,0.01795861158842042
-8.8225,0.01795861158842042
-8.82,0.01795861158842042
-8.817500000000001,0.01795861158842042
-8.815,0.01795861158842042
-8.8125,0.01795861158842042
-8.81,0.01795861158842042
-8.807499999999999,0.01795861158842042
-8.805,0.01795861158842042
-8.8025,0.01795861158842042
-8.800000000000001,0.01795861158842042
-8.797499999999999,0.01795861158842042
-8.795,0.01795861158842042
-8.7925,0.01795861158842042
-8.789999999999999,0.01795861158842042
-8.7875,0.01795861158842042
-8.785,0.01795861158842042
-8.782500000000001,0.01795861158842042
-8.779999999999999,0.01795861158842042
-8.7775,0.01795861158842042
-8.775,0.01795861158842042
-8.772500000000001,0.01795861158842042
-8.77,0.01795861158842042
-8.7675,0.01795861158842042
-8.765000000000001,0.01795861158842042
-8.762499999999999,0.01795861158842042
-8.76,0.01795861158842042
-8.7575,0.01795861158842042
-8.755000000000001,0.01795861158842042
-8.7525,0.01795861158842042
-8.75,0.01795861158842042
-8.7475,0.01795861158842042
-8.744999999999999,0.01795861158842042
-8.7425,0.01795861158842042
-8.74,0.01795861158842042
-8.737500000000001,0.01795861158842042
-8.734999999999999,0.01795861158842042
-8.7325,0.01795861158842042
-8.73,0.01795861158842042
-8.727499999999999,0.01795861158842042
-8.725,0.01795861158842042
-8.7225,0.01795861158842042
-8.720000000000001,0.01795861158842042
-8.717499999999999,0.01795861158842042
-8.715,0.01795861158842042
-8.7125,0.01795861158842042
-8.710000000000001,0.01795861158842042
-8.7075,0.01795861158842042
-8.705,0.01795861158842042
-8.702500000000001,0.01795861158842042
-8.699999999999999,0.01795861158842042
-8.6975,0.01795861158842042
-8.695,0.01795861158842042
-8.692500000000001,0.01795861158842042
-8.69,0.01795861158842042
-8.6875,0.01795861158842042
-8.685,0.01795861158842042
-8.682499999999999,0.01795861158842042
-8.68,0.01795861158842042
-8.6775,0.01795861158842042
-8.675000000000001,0.01795861158842042
-8.672499999999999,0.01795861158842042
-8.67,0.01795861158842042
-8.6675,0.01795861158842042
-8.664999999999999,0.01795861158842042
-8.6625,0.01795861158842042
